{
  "globalDependencies": {
    "express-serve-static-core": "registry:dt/express-serve-static-core#4.0.0+20161119044246",
    "express-validator": "registry:dt/express-validator#2.20.4+20160818215330",
    "mocha": "registry:dt/mocha#2.2.5+20161220115504",
    "node": "registry:env/node#6.0.0+20161105011511"
  },
  "dependencies": {
    "bcrypt": "registry:dt/bcrypt#1.0.0+20161217125511",
    "body-parser": "registry:dt/body-parser#0.0.0+20160726204056",
    "express": "registry:dt/express#4.0.0+20161115070701",
    "jsonwebtoken": "registry:npm/jsonwebtoken#7.1.8+20160811031426",
    "serve-static": "registry:dt/serve-static#1.7.1+20161128184045",
    "supertest": "registry:dt/supertest#1.1.0+20161122042843"
  }
}
